Zoltar: a forecast repository
…
Submit a query to the API

fcasts <- do_zoltar_query(zoltar_connection, 
    project_url =  covidhub_project_url,
    is_forecast_query = TRUE,
    models = c("MOBS-GLEAM_COVID", "IHME-CurveFit", "COVIDhub-ensemble", "COVIDhub-baseline"), 
    targets = paste(1:20, "wk ahead inc death"),
    units = "48", ## FIPS code for Texas
    types = c("point"), ## only retrieving point forecasts
    timezeros = "2020-06-22")

dplyr::select(fcasts, model, timezero, unit, target, class, value)

## # A tibble: 32 x 6
##    model         timezero   unit  target                class value
##    <chr>         <date>     <chr> <chr>                 <chr> <dbl>
##  1 IHME-CurveFit 2020-06-22 48    1 wk ahead inc death  point  242.
##  2 IHME-CurveFit 2020-06-22 48    10 wk ahead inc death point  896.
##  3 IHME-CurveFit 2020-06-22 48    11 wk ahead inc death point 1033.
##  4 IHME-CurveFit 2020-06-22 48    12 wk ahead inc death point 1263.
##  5 IHME-CurveFit 2020-06-22 48    13 wk ahead inc death point 1510.
##  6 IHME-CurveFit 2020-06-22 48    14 wk ahead inc death point 1779.
##  7 IHME-CurveFit 2020-06-22 48    15 wk ahead inc death point 2062.
##  8 IHME-CurveFit 2020-06-22 48    16 wk ahead inc death point 2352.
##  9 IHME-CurveFit 2020-06-22 48    17 wk ahead inc death point 2642.
## 10 IHME-CurveFit 2020-06-22 48    18 wk ahead inc death point 2923.
## #  with 22 more rows
…
Submit a query to the API

fcasts <- do_zoltar_query(zoltar_connection, 
        project_url =  covidhub_project_url,
        is_forecast_query = TRUE,
        models = c("COVIDhub-ensemble"), 
        targets = paste(1:4, "wk ahead inc death"),
        units = "48", ## FIPS code for Texas
        types = c("quantile"),
        timezeros = seq.Date(as.Date("2020-06-01"), as.Date("2020-10-05"), by="28 days")) 

dplyr::select(fcasts, model, timezero, unit, target, quantile, value)

## # A tibble: 368 x 6
##    model             timezero   unit  target               quantile value
##    <chr>             <date>     <chr> <chr>                   <dbl> <dbl>
##  1 COVIDhub-ensemble 2020-06-29 48    1 wk ahead inc death    0.01   153.
##  2 COVIDhub-ensemble 2020-06-29 48    1 wk ahead inc death    0.025  163.
##  3 COVIDhub-ensemble 2020-06-29 48    1 wk ahead inc death    0.05   173.
##  4 COVIDhub-ensemble 2020-06-29 48    1 wk ahead inc death    0.1    187.
##  5 COVIDhub-ensemble 2020-06-29 48    1 wk ahead inc death    0.15   197.
##  6 COVIDhub-ensemble 2020-06-29 48    1 wk ahead inc death    0.2    205.
##  7 COVIDhub-ensemble 2020-06-29 48    1 wk ahead inc death    0.25   213.
##  8 COVIDhub-ensemble 2020-06-29 48    1 wk ahead inc death    0.3    220.
##  9 COVIDhub-ensemble 2020-06-29 48    1 wk ahead inc death    0.35   227.
## 10 COVIDhub-ensemble 2020-06-29 48    1 wk ahead inc death    0.4    234.
## #  with 358 more rows
…
